<svg version="1.1" id="圖層_1" xmlns="http://www.w3.org/2000/svg" xmlns:xlink="http://www.w3.org/1999/xlink" x="0px" y="0px" viewBox="0 0 100 100" style="transform-origin: 50px 50px 0px;" xml:space="preserve">
    <g style="transform-origin: 50px 50px 0px;">
        <g style="transform-origin: 50px 50px 0px; transform: scale(0.6);">
            <g style="transform-origin: 50px 50px 0px;">
                <g>
                    <g style="transform-origin: 50px 50px 0px;">
                        <g>
                            <g class="ld ld-breath" style="transform-origin: 50px 50px 0px; animation-duration: 1s; animation-delay: -1s; animation-direction: normal;">
                                <path id="XMLID_1_" style="fill:#ffb281;stroke:#000;stroke-width:3;stroke-miterlimit:10" d="M72.4,49.2 c-0.8,0-1.5,0.1-2.2,0.4V45c0-3-2.8-5.4-6.3-5.4H31.6c-3.5,0-6.3,2.4-6.3,5.4v4.6c-0.7-0.2-1.5-0.4-2.2-0.4c-3.7,0-6.7,2.8-6.7,6.2 c0,3.4,3,6.2,6.7,6.2c0.8,0,1.5-0.1,2.2-0.4V63c0,3,2.8,5.4,6.3,5.4h32.3c3.5,0,6.3-2.4,6.3-5.4v-1.7c0.7,0.2,1.5,0.4,2.2,0.4 c3.7,0,6.7-2.8,6.7-6.2C79.2,52,76.1,49.2,72.4,49.2z" fill="rgb(255, 178, 129)" stroke="rgb(0, 0, 0)"></path>
                            </g>
                            <g class="ld ld-breath" style="transform-origin: 50px 50px 0px; animation-duration: 1s; animation-delay: -0.954545s; animation-direction: normal;">
                                <path style="fill:#fff;stroke:#000;stroke-width:3;stroke-miterlimit:10" d="M69.9,66.7c0.6-3.8,0.7-7.3,0.7-10.1 c0-4.1-0.4-7.6-0.8-10.5c-1.3,0-2.7,0-4,0c0.6,4,0.8,7.6,0.8,10.5c0,3.7-0.3,6.9-0.7,9.6c0.3,0,0.5,0,0.8,0 C67.8,66.2,68.9,66.4,69.9,66.7z" stroke="rgb(0, 0, 0)" fill="rgb(255, 255, 255)"></path>
                            </g>
                            <g class="ld ld-breath" style="transform-origin: 50px 50px 0px; animation-duration: 1s; animation-delay: -0.909091s; animation-direction: normal;">
                                <ellipse style="stroke: rgb(0, 0, 0); stroke-width: 3; stroke-miterlimit: 10; fill: rgb(0, 0, 0);" cx="39.3" cy="55.1" rx="1.8" ry="1.6" fill="rgb(0, 0, 0)" stroke="rgb(0, 0, 0)"></ellipse>
                            </g>
                            <g class="ld ld-breath" style="transform-origin: 50px 50px 0px; animation-duration: 1s; animation-delay: -0.863636s; animation-direction: normal;">
                                <ellipse style="stroke: rgb(0, 0, 0); stroke-width: 3; stroke-miterlimit: 10; fill: rgb(0, 0, 0);" cx="54" cy="55.1" rx="1.8" ry="1.6" fill="rgb(0, 0, 0)" stroke="rgb(0, 0, 0)"></ellipse>
                            </g>
                            <g class="ld ld-breath" style="transform-origin: 50px 50px 0px; animation-duration: 1s; animation-delay: -0.818182s; animation-direction: normal;">
                                <path style="fill:#fff;stroke:#000;stroke-width:3;stroke-miterlimit:10" d="M29.8,66.2c-0.5-3.6-0.7-6.9-0.7-9.6 c0-4.1,0.4-7.6,0.8-10.5c-1.4,0-2.8,0-4.1,0C25.4,48.8,25,52,25,55.6c-0.1,4.4,0.3,8.1,0.8,11.2c1.1-0.4,2.2-0.6,3.4-0.6 C29.4,66.2,29.6,66.2,29.8,66.2z" stroke="rgb(0, 0, 0)" fill="rgb(255, 255, 255)"></path>
                            </g>
                            <g class="ld ld-breath" style="transform-origin: 50px 50px 0px; animation-duration: 1s; animation-delay: -0.772727s; animation-direction: normal;">
                                <path style="fill:#fff;stroke:#000;stroke-width:3;stroke-linecap:round;stroke-linejoin:round;stroke-miterlimit:10" d=" M76,70.2c-1.4-5.9-7.1-10.5-12.7-9.8c-3.5,0.4-5.9,2.7-6.8,3.7c-0.9-0.8-2.4-1.7-4.3-2.5c-0.5-0.2-2.7-1-5.3-0.9 c-5.2,0.1-9,3.4-10.2,4.5c-1-1-4-3.7-8.3-3.7c-5.5,0-12.1,4.4-12.1,11c0,5.5,4.4,10,10.2,10.8c0.5,3.6,4.1,6.4,8.4,6.4 c1.7,0,3.3-0.4,4.6-1.2c0.1,0.2,2.8,4.1,7.2,3.6c3.4-0.4,5.3-3.2,5.6-3.6c1.5,1.4,3.7,2.2,6.1,2.2c4.3,0,7.8-2.7,8.4-6.2 c1.2,0.1,3,0.1,4.7-0.8C75.7,81.5,77.2,75.1,76,70.2z" stroke="rgb(0, 0, 0)" fill="rgb(255, 255, 255)"></path>
                            </g>
                            <g class="ld ld-breath" style="transform-origin: 50px 50px 0px; animation-duration: 1s; animation-delay: -0.727273s; animation-direction: normal;">
                                <path style="fill:none;stroke:#000;stroke-width:3;stroke-linecap:round;stroke-miterlimit:10" d="M40.2,73.1 c0.2,0.2,3.5,3.7,8.6,3.1c3.7-0.4,5.7-2.7,6.1-3.1" stroke="rgb(0, 0, 0)"></path>
                            </g>
                            <g class="ld ld-breath" style="transform-origin: 50px 50px 0px; animation-duration: 1s; animation-delay: -0.681818s; animation-direction: normal;">
                                <circle style="fill: rgb(255, 0, 0); stroke: rgb(0, 0, 0); stroke-width: 3; stroke-miterlimit: 10;" cx="47.3" cy="62.1" r="4" stroke="rgb(0, 0, 0)" fill="rgb(255, 0, 0)"></circle>
                            </g>
                        </g>
                    </g>
                    <g style="transform-origin: 50px 50px 0px;">
                        <g>
                            <g class="ld ld-breath" style="transform-origin: 50px 50px 0px; animation-duration: 1s; animation-delay: -0.636364s; animation-direction: normal;">
                                <path style="fill:#ed1c24;stroke:#000;stroke-width:3;stroke-miterlimit:10" d="M75,19.7c-1.7-2.3-5.8-7.3-13.1-10 c-11.2-4.3-21.1,0.2-22.6,0.9C37.6,11.3,24,17.8,24.3,28c0.3,9.5,12.3,16.4,22.2,17.2c10.8,0.8,18.6-5.9,20.4-7.5 c1.3-0.2,5.2-0.4,9,2c2.1,1.3,3.3,2.9,4,4C80.4,41.5,82.4,29.9,75,19.7z" stroke="rgb(0, 0, 0)" fill="rgb(237, 28, 36)"></path>
                            </g>
                            <g class="ld ld-breath" style="transform-origin: 50px 50px 0px; animation-duration: 1s; animation-delay: -0.590909s; animation-direction: normal;">
                                <path style="fill:#fff;stroke:#000;stroke-width:3;stroke-miterlimit:10" d="M66.3,46.1H27.6c-3.9,0-7-3.1-7-7V39 c0-3.9,3.1-7,7-7h38.7c3.9,0,7,3.1,7,7v0.1C73.3,42.9,70.2,46.1,66.3,46.1z" stroke="rgb(0, 0, 0)" fill="rgb(255, 255, 255)"></path>
                            </g>
                            <g class="ld ld-breath" style="transform-origin: 50px 50px 0px; animation-duration: 1s; animation-delay: -0.545455s; animation-direction: normal;">
                                <ellipse style="fill:#fff;stroke:#000;stroke-width:3;stroke-miterlimit:10" cx="79.4" cy="47.5" rx="4.3" ry="3.7" stroke="rgb(0, 0, 0)" fill="rgb(255, 255, 255)"></ellipse>
                            </g>
                        </g>
                    </g>
                    <metadata xmlns:d="https://loading.io/stock/" class="ld ld-breath" style="transform-origin: 50px 50px 0px; animation-duration: 1s; animation-delay: -0.5s; animation-direction: normal;">
                        <d:name class="ld ld-breath" style="transform-origin: 50px 50px 0px; animation-duration: 1s; animation-delay: -0.454545s; animation-direction: normal;">santa claus </d:name>
                        <d:tags class="ld ld-breath" style="transform-origin: 50px 50px 0px; animation-duration: 1s; animation-delay: -0.409091s; animation-direction: normal;">santa claus , christmas, happiness, festival , santa</d:tags>
                        <d:license class="ld ld-breath" style="transform-origin: 50px 50px 0px; animation-duration: 1s; animation-delay: -0.363636s; animation-direction: normal;">cc-by</d:license>
                        <d:slug class="ld ld-breath" style="transform-origin: 50px 50px 0px; animation-duration: 1s; animation-delay: -0.318182s; animation-direction: normal;">2e4qgy</d:slug>
                    </metadata>
                </g>
            </g>
        </g>
    </g>
    <style type="text/css" class="ld ld-breath" style="transform-origin: 50px 50px 0px; animation-duration: 1s; animation-delay: -0.272727s; animation-direction: normal;">@keyframes ld-breath {
  0% {
    -webkit-transform: scale(0.86);
    transform: scale(0.86);
  }
  50% {
    -webkit-transform: scale(1.06);
    transform: scale(1.06);
  }
  100% {
    -webkit-transform: scale(0.86);
    transform: scale(0.86);
  }
}
@-webkit-keyframes ld-breath {
  0% {
    -webkit-transform: scale(0.86);
    transform: scale(0.86);
  }
  50% {
    -webkit-transform: scale(1.06);
    transform: scale(1.06);
  }
  100% {
    -webkit-transform: scale(0.86);
    transform: scale(0.86);
  }
}
.ld.ld-breath {
  -webkit-animation: ld-breath 1s infinite;
  animation: ld-breath 1s infinite;
}
</style>
</svg>